C:\Users\hh\Documents\adventura\src\main\java\logika\persons\Npc.java
C:\Users\hh\Documents\adventura\src\main\java\logika\commands\CommandFight.java
C:\Users\hh\Documents\adventura\src\main\java\logika\IHra.java
C:\Users\hh\Documents\adventura\src\main\java\logika\core\Hra.java
C:\Users\hh\Documents\adventura\src\main\java\uiText\TextoveRozhrani.java
C:\Users\hh\Documents\adventura\src\main\java\logika\persons\LivingEntity.java
C:\Users\hh\Documents\adventura\src\main\java\logika\core\HerniPlan.java
C:\Users\hh\Documents\adventura\src\main\java\logika\commands\PrikazNapoveda.java
C:\Users\hh\Documents\adventura\src\main\java\logika\commands\CommandGive.java
C:\Users\hh\Documents\adventura\src\main\java\logika\core\Controller.java
C:\Users\hh\Documents\adventura\src\main\java\logika\commands\CommandBuy.java
C:\Users\hh\Documents\adventura\src\main\java\logika\core\Combat.java
C:\Users\hh\Documents\adventura\src\main\java\logika\commands\CommandSpeak.java
C:\Users\hh\Documents\adventura\src\main\java\logika\commands\CommandShowInventory.java
C:\Users\hh\Documents\adventura\src\main\java\Start.java
C:\Users\hh\Documents\adventura\src\main\java\logika\core\SeznamPrikazu.java
C:\Users\hh\Documents\adventura\src\main\java\logika\Start.java
C:\Users\hh\Documents\adventura\src\main\java\logika\commands\PrikazJdi.java
C:\Users\hh\Documents\adventura\src\main\java\logika\commands\CommandPickUp.java
C:\Users\hh\Documents\adventura\src\main\java\logika\persons\Player.java
C:\Users\hh\Documents\adventura\src\main\java\logika\gameplaces\Prostor.java
C:\Users\hh\Documents\adventura\src\main\java\logika\items\Inventory.java
C:\Users\hh\Documents\adventura\src\main\java\logika\commands\PrikazKonec.java
C:\Users\hh\Documents\adventura\src\main\java\logika\commands\CommandUse.java
C:\Users\hh\Documents\adventura\src\main\java\logika\Constants.java
C:\Users\hh\Documents\adventura\src\main\java\logika\items\Elixir.java
C:\Users\hh\Documents\adventura\src\main\java\logika\commands\IPrikaz.java
C:\Users\hh\Documents\adventura\src\main\java\logika\items\Vec.java
